…
``` r
lj_words_corrected %>%
  distinct(itemid, current_music) %>%
  count(current_music, sort = TRUE)
```

    ## # A tibble: 35 x 2
    ##    current_music                                    n
    ##    <chr>                                        <int>
    ##  1  <NA>                                           99
    ##  2 "I want to break free- queen"                    2
    ##  3 "'Willkommen\" -caberet"                         1
    ##  4 "\"All I Ask Of You\" -Phantom of teh Opera"     1
    ##  5 "\"Hey G-d\" Bon Jovi"                           1
    ##  6 "\"Within You\" by David Bowie"                  1
    ##  7 "30/90 Tick Tick...Boom"                         1
    ##  8 "AIDA"                                           1
    ##  9 "Bo Rhap -Queen"                                 1
    ## 10 "Harry Potter Theme"                             1
    ## # … with 25 more rows
